2018/11/20 17:23:21 [error] 7#0: *2 FastCGI sent in stderr: "Primary script unknown" while reading response header from upstream, client: 172.20.0.1, server: , request: "GET / HTTP/1.1", upstream: "fastcgi://172.20.0.2:9000", host: "localhost:6080"
2018/11/20 17:23:23 [error] 7#0: *2 FastCGI sent in stderr: "Primary script unknown" while reading response header from upstream, client: 172.20.0.1, server: , request: "GET / HTTP/1.1", upstream: "fastcgi://172.20.0.2:9000", host: "localhost:6080"
2018/11/20 17:23:23 [error] 7#0: *2 FastCGI sent in stderr: "Primary script unknown" while reading response header from upstream, client: 172.20.0.1, server: , request: "GET / HTTP/1.1", upstream: "fastcgi://172.20.0.2:9000", host: "localhost:6080"
2018/11/20 17:23:31 [error] 7#0: *2 FastCGI sent in stderr: "Primary script unknown" while reading response header from upstream, client: 172.20.0.1, server: , request: "GET / HTTP/1.1", upstream: "fastcgi://172.20.0.2:9000", host: "localhost:6080"
2018/11/20 17:23:31 [error] 7#0: *2 FastCGI sent in stderr: "Primary script unknown" while reading response header from upstream, client: 172.20.0.1, server: , request: "GET / HTTP/1.1", upstream: "fastcgi://172.20.0.2:9000", host: "localhost:6080"
2018/11/20 17:23:32 [error] 7#0: *2 FastCGI sent in stderr: "Primary script unknown" while reading response header from upstream, client: 172.20.0.1, server: , request: "GET / HTTP/1.1", upstream: "fastcgi://172.20.0.2:9000", host: "localhost:6080"
2018/11/20 17:23:32 [error] 7#0: *2 FastCGI sent in stderr: "Primary script unknown" while reading response header from upstream, client: 172.20.0.1, server: , request: "GET / HTTP/1.1", upstream: "fastcgi://172.20.0.2:9000", host: "localhost:6080"
2018/11/20 17:24:37 [error] 7#0: *11 FastCGI sent in stderr: "Primary script unknown" while reading response header from upstream, client: 172.20.0.1, server: , request: "GET / HTTP/1.1", upstream: "fastcgi://172.20.0.2:9000", host: "localhost:6080"
2018/11/20 17:24:38 [error] 7#0: *11 FastCGI sent in stderr: "Primary script unknown" while reading response header from upstream, client: 172.20.0.1, server: , request: "GET / HTTP/1.1", upstream: "fastcgi://172.20.0.2:9000", host: "localhost:6080"
2018/11/20 17:24:38 [error] 7#0: *11 FastCGI sent in stderr: "Primary script unknown" while reading response header from upstream, client: 172.20.0.1, server: , request: "GET / HTTP/1.1", upstream: "fastcgi://172.20.0.2:9000", host: "localhost:6080"
2018/11/20 17:28:39 [error] 7#0: *2 connect() failed (111: Connection refused) while connecting to upstream, client: 172.20.0.1, server: , request: "GET / HTTP/1.1", upstream: "fastcgi://172.20.0.2:8000", host: "localhost:6080"
2018/11/20 17:28:40 [error] 7#0: *2 connect() failed (111: Connection refused) while connecting to upstream, client: 172.20.0.1, server: , request: "GET / HTTP/1.1", upstream: "fastcgi://172.20.0.2:8000", host: "localhost:6080"
2018/11/20 17:28:40 [error] 7#0: *2 connect() failed (111: Connection refused) while connecting to upstream, client: 172.20.0.1, server: , request: "GET / HTTP/1.1", upstream: "fastcgi://172.20.0.2:8000", host: "localhost:6080"
2018/11/20 17:28:41 [error] 7#0: *2 connect() failed (111: Connection refused) while connecting to upstream, client: 172.20.0.1, server: , request: "GET / HTTP/1.1", upstream: "fastcgi://172.20.0.2:8000", host: "localhost:6080"
2018/11/20 17:28:41 [error] 7#0: *2 connect() failed (111: Connection refused) while connecting to upstream, client: 172.20.0.1, server: , request: "GET / HTTP/1.1", upstream: "fastcgi://172.20.0.2:8000", host: "localhost:6080"
2018/11/20 17:28:42 [error] 7#0: *2 connect() failed (111: Connection refused) while connecting to upstream, client: 172.20.0.1, server: , request: "GET / HTTP/1.1", upstream: "fastcgi://172.20.0.2:8000", host: "localhost:6080"
2018/11/20 17:29:20 [error] 7#0: *2 connect() failed (111: Connection refused) while connecting to upstream, client: 172.20.0.1, server: , request: "GET / HTTP/1.1", upstream: "fastcgi://172.20.0.2:8000", host: "localhost:6080"
2018/11/20 17:29:20 [error] 7#0: *2 connect() failed (111: Connection refused) while connecting to upstream, client: 172.20.0.1, server: , request: "GET / HTTP/1.1", upstream: "fastcgi://172.20.0.2:8000", host: "localhost:6080"
2018/11/20 17:29:21 [error] 7#0: *2 connect() failed (111: Connection refused) while connecting to upstream, client: 172.20.0.1, server: , request: "GET / HTTP/1.1", upstream: "fastcgi://172.20.0.2:8000", host: "localhost:6080"
2018/11/20 17:30:51 [error] 7#0: *17 connect() failed (111: Connection refused) while connecting to upstream, client: 172.20.0.1, server: , request: "GET / HTTP/1.1", upstream: "fastcgi://172.20.0.2:8000", host: "localhost:6080"
2018/11/20 17:31:34 [error] 7#0: *2 FastCGI sent in stderr: "Primary script unknown" while reading response header from upstream, client: 172.20.0.1, server: , request: "GET / HTTP/1.1", upstream: "fastcgi://172.20.0.2:9000", host: "localhost:6080"
2018/11/20 17:34:07 [error] 7#0: *4 FastCGI sent in stderr: "Primary script unknown" while reading response header from upstream, client: 172.20.0.1, server: , request: "GET / HTTP/1.1", upstream: "fastcgi://172.20.0.2:9000", host: "localhost:6080"
2018/11/20 17:34:31 [error] 7#0: *4 FastCGI sent in stderr: "Primary script unknown" while reading response header from upstream, client: 172.20.0.1, server: , request: "GET / HTTP/1.1", upstream: "fastcgi://172.20.0.2:9000", host: "localhost:6080"
2018/11/20 17:35:26 [error] 7#0: *4 FastCGI sent in stderr: "Primary script unknown" while reading response header from upstream, client: 172.20.0.1, server: , request: "GET / HTTP/1.1", upstream: "fastcgi://172.20.0.2:9000", host: "localhost:6080"
2018/11/20 17:36:23 [error] 7#0: *4 FastCGI sent in stderr: "Primary script unknown" while reading response header from upstream, client: 172.20.0.1, server: , request: "GET / HTTP/1.1", upstream: "fastcgi://172.20.0.2:9000", host: "localhost:6080"
2018/11/20 17:37:21 [error] 7#0: *2 FastCGI sent in stderr: "Primary script unknown" while reading response header from upstream, client: 172.20.0.1, server: , request: "GET / HTTP/1.1", upstream: "fastcgi://172.20.0.2:9000", host: "localhost:6080"
2018/11/20 17:37:21 [error] 7#0: *2 FastCGI sent in stderr: "Primary script unknown" while reading response header from upstream, client: 172.20.0.1, server: , request: "GET / HTTP/1.1", upstream: "fastcgi://172.20.0.2:9000", host: "localhost:6080"
2018/11/20 17:37:21 [error] 7#0: *2 FastCGI sent in stderr: "Primary script unknown" while reading response header from upstream, client: 172.20.0.1, server: , request: "GET / HTTP/1.1", upstream: "fastcgi://172.20.0.2:9000", host: "localhost:6080"
2018/11/20 17:37:22 [error] 7#0: *2 FastCGI sent in stderr: "Primary script unknown" while reading response header from upstream, client: 172.20.0.1, server: , request: "GET / HTTP/1.1", upstream: "fastcgi://172.20.0.2:9000", host: "localhost:6080"
2018/11/20 17:42:14 [error] 8#0: *2 FastCGI sent in stderr: "Primary script unknown" while reading response header from upstream, client: 172.20.0.1, server: , request: "GET / HTTP/1.1", upstream: "fastcgi://172.20.0.2:9000", host: "localhost:6080"
2018/11/20 17:42:15 [error] 8#0: *2 FastCGI sent in stderr: "Primary script unknown" while reading response header from upstream, client: 172.20.0.1, server: , request: "GET / HTTP/1.1", upstream: "fastcgi://172.20.0.2:9000", host: "localhost:6080"
2018/11/20 17:42:15 [error] 8#0: *2 FastCGI sent in stderr: "Primary script unknown" while reading response header from upstream, client: 172.20.0.1, server: , request: "GET / HTTP/1.1", upstream: "fastcgi://172.20.0.2:9000", host: "localhost:6080"
2018/11/20 17:42:15 [error] 8#0: *2 FastCGI sent in stderr: "Primary script unknown" while reading response header from upstream, client: 172.20.0.1, server: , request: "GET / HTTP/1.1", upstream: "fastcgi://172.20.0.2:9000", host: "localhost:6080"
2018/11/20 17:42:15 [error] 8#0: *2 FastCGI sent in stderr: "Primary script unknown" while reading response header from upstream, client: 172.20.0.1, server: , request: "GET / HTTP/1.1", upstream: "fastcgi://172.20.0.2:9000", host: "localhost:6080"
2018/11/21 18:21:51 [error] 10#0: *518 upstream timed out (110: Connection timed out) while reading response header from upstream, client: 172.20.0.1, server: , request: "GET / HTTP/1.1", upstream: "fastcgi://172.20.0.2:9000", host: "localhost:6080"
2018/11/22 09:07:53 [error] 8#0: *434 upstream timed out (110: Connection timed out) while reading response header from upstream, client: 172.20.0.1, server: , request: "GET /favicon.ico HTTP/1.1", upstream: "fastcgi://172.20.0.2:9000", host: "localhost:6080", referrer: "http://localhost:6080/"
2018/11/23 12:56:25 [error] 10#10: *1 open() "/usr/share/nginx/html/favicon.ico" failed (2: No such file or directory), client: 172.20.0.1, server: localhost, request: "GET /favicon.ico HTTP/1.1", host: "localhost:6080", referrer: "http://localhost:6080/"
2018/11/23 13:37:48 [error] 7#0: *4 upstream timed out (110: Connection timed out) while reading response header from upstream, client: 172.20.0.1, server: , request: "GET / HTTP/1.1", upstream: "fastcgi://172.20.0.2:9000", host: "localhost:6080"
2018/11/26 12:33:57 [error] 7#0: *139 upstream timed out (110: Connection timed out) while reading response header from upstream, client: 172.20.0.1, server: , request: "GET / HTTP/1.1", upstream: "fastcgi://172.20.0.2:9000", host: "localhost:6080"
2018/11/26 14:10:16 [error] 8#0: *229 upstream timed out (110: Connection timed out) while reading response header from upstream, client: 172.20.0.1, server: , request: "GET / HTTP/1.1", upstream: "fastcgi://172.20.0.2:9000", host: "localhost:6080"
2018/11/27 07:22:03 [error] 9#0: *91 upstream timed out (110: Connection timed out) while reading response header from upstream, client: 172.20.0.1, server: , request: "GET / HTTP/1.1", upstream: "fastcgi://172.20.0.2:9000", host: "localhost:6080"
2018/11/27 09:03:31 [error] 9#0: *237 upstream timed out (110: Connection timed out) while reading response header from upstream, client: 172.20.0.1, server: , request: "GET / HTTP/1.1", upstream: "fastcgi://172.20.0.2:9000", host: "localhost:6080"
2018/11/27 10:41:11 [error] 9#0: *315 upstream timed out (110: Connection timed out) while reading response header from upstream, client: 172.20.0.1, server: , request: "GET / HTTP/1.1", upstream: "fastcgi://172.20.0.2:9000", host: "localhost:6080"
2018/11/27 13:51:24 [error] 9#0: *433 upstream timed out (110: Connection timed out) while reading response header from upstream, client: 172.20.0.1, server: , request: "GET / HTTP/1.1", upstream: "fastcgi://172.20.0.2:9000", host: "localhost:6080"
2018/11/27 14:35:32 [error] 9#0: *440 upstream timed out (110: Connection timed out) while reading response header from upstream, client: 172.20.0.1, server: , request: "GET / HTTP/1.1", upstream: "fastcgi://172.20.0.2:9000", host: "localhost:6080"
2018/11/29 09:27:21 [error] 9#0: *2 open() "/var/www/html/favicon.ico" failed (2: No such file or directory), client: 172.20.0.1, server: , request: "GET /favicon.ico HTTP/1.1", host: "localhost:6080", referrer: "http://localhost:6080/api/"
2018/11/29 09:29:38 [error] 8#0: *2 open() "/var/www/html/api/api.php" failed (2: No such file or directory), client: 172.20.0.1, server: , request: "GET /api/ HTTP/1.1", host: "localhost:6080"
2018/11/29 09:29:39 [error] 8#0: *2 open() "/var/www/html/api/api.php" failed (2: No such file or directory), client: 172.20.0.1, server: , request: "GET /api/ HTTP/1.1", host: "localhost:6080"
2018/11/29 09:29:39 [error] 8#0: *4 open() "/var/www/html/api/api.php" failed (2: No such file or directory), client: 172.20.0.1, server: , request: "GET /api/ HTTP/1.1", host: "localhost:6080"
2018/11/29 09:51:14 [error] 8#0: *6 open() "/var/www/html/api/api.php" failed (2: No such file or directory), client: 172.20.0.1, server: , request: "GET /api/ HTTP/1.1", host: "localhost:6080"
2018/11/29 09:51:14 [error] 8#0: *6 open() "/var/www/html/api/api.php" failed (2: No such file or directory), client: 172.20.0.1, server: , request: "GET /api/ HTTP/1.1", host: "localhost:6080"
2018/12/02 14:39:05 [error] 8#0: *314 FastCGI sent in stderr: "Primary script unknown" while reading response header from upstream, client: 172.19.0.1, server: , request: "GET /images/?url=http://sportbox.ru HTTP/1.1", upstream: "fastcgi://172.19.0.2:9000", host: "localhost:6080"
2018/12/02 14:39:05 [error] 8#0: *314 FastCGI sent in stderr: "Unable to open primary script: /var/www/html/index.php (No such file or directory)" while reading response header from upstream, client: 172.19.0.1, server: , request: "GET /favicon.ico HTTP/1.1", upstream: "fastcgi://172.19.0.2:9000", host: "localhost:6080", referrer: "http://localhost:6080/images/?url=http://sportbox.ru"
2018/12/02 15:09:53 [error] 8#0: *14 upstream timed out (110: Connection timed out) while reading response header from upstream, client: 172.19.0.1, server: , request: "GET /images/?url=http://sportbox.ru HTTP/1.1", upstream: "fastcgi://172.19.0.3:9000", host: "localhost:6080"
2018/12/02 15:49:02 [error] 8#0: *62 upstream timed out (110: Connection timed out) while reading response header from upstream, client: 172.19.0.1, server: , request: "GET /images/?url=http://sportbox.ru HTTP/1.1", upstream: "fastcgi://172.19.0.3:9000", host: "localhost:6080"
2018/12/02 15:59:50 [error] 8#0: *68 upstream timed out (110: Connection timed out) while reading response header from upstream, client: 172.19.0.1, server: , request: "GET /images/?url=http://sportbox.ru HTTP/1.1", upstream: "fastcgi://172.19.0.3:9000", host: "localhost:6080"
2018/12/02 16:02:06 [error] 8#0: *68 upstream timed out (110: Connection timed out) while reading response header from upstream, client: 172.19.0.1, server: , request: "GET /images/?url=http://sportbox.ru HTTP/1.1", upstream: "fastcgi://172.19.0.3:9000", host: "localhost:6080"
2018/12/02 16:06:39 [error] 8#0: *83 upstream timed out (110: Connection timed out) while reading response header from upstream, client: 172.19.0.1, server: , request: "GET /images/?url=http://sportbox.ru HTTP/1.1", upstream: "fastcgi://172.19.0.3:9000", host: "localhost:6080"
2018/12/02 16:07:45 [error] 8#0: *83 upstream timed out (110: Connection timed out) while reading response header from upstream, client: 172.19.0.1, server: , request: "GET /images/?url=http://sportbox.ru HTTP/1.1", upstream: "fastcgi://172.19.0.3:9000", host: "localhost:6080"
2018/12/02 16:08:47 [error] 8#0: *83 upstream timed out (110: Connection timed out) while reading response header from upstream, client: 172.19.0.1, server: , request: "GET /images/?url=http://sportbox.ru HTTP/1.1", upstream: "fastcgi://172.19.0.3:9000", host: "localhost:6080"
2018/12/02 16:10:22 [error] 8#0: *83 upstream timed out (110: Connection timed out) while reading response header from upstream, client: 172.19.0.1, server: , request: "GET /images/?url=http://sportbox.ru HTTP/1.1", upstream: "fastcgi://172.19.0.3:9000", host: "localhost:6080"
